/** 
 * 12- ADC
 * Rafael Corsi @ insper.edu.br
 * Abril 2017
 * 
 * Configura o ADC do SAME70 para fazer leitura
 * do sensor de temperatura interno
 */

/************************************************************************/
/* Includes                                                             */
/************************************************************************/

#include <stdio.h>
#include <string.h>
#include <assert.h>
#include "asf.h"
#include <stdlib.h>
#include "ioport.h"
#include "logo.h"

/************************************************************************/
/* Defines                                                              */
/************************************************************************/

/** Header printf */
#define STRING_EOL    "\r"
#define STRING_HEADER "-- AFEC Temperature Sensor Example --\r\n" \
"-- "BOARD_NAME" --\r\n" \
"-- Compiled: "__DATE__" "__TIME__" --"STRING_EOL

struct ili9488_opt_t g_ili9488_display_opt;

/** Reference voltage for AFEC,in mv. */
#define VOLT_REF        (3300)

/** The maximal digital value */
/** 2^12 - 1                  */
#define MAX_DIGITAL     (4095UL)

/** The conversion data is done flag */
volatile bool is_conversion_done = false;

/** The conversion data value */
volatile uint32_t g_ul_value = 0;

volatile uint8_t flag_print = 0;

/* Canal do sensor de temperatura */
#define AFEC_CHANNEL_TEMP_SENSOR 11

void TC_init(Tc * TC, int ID_TC, int TC_CHANNEL, int freq);
extern void vApplicationStackOverflowHook(xTaskHandle *pxTask,
			signed char *pcTaskName);
extern void vApplicationIdleHook(void);
/************************************************************************/
/* Callbacks / Handler                                                 */
/************************************************************************/

/**
 * \brief AFEC interrupt callback function.
 */
static void AFEC_Temp_callback(void)
{
	g_ul_value = afec_channel_get_value(AFEC0, AFEC_CHANNEL_TEMP_SENSOR);
	is_conversion_done = true;
}

/************************************************************************/
/* Funcoes                                                              */
/************************************************************************/

/**
 * \brief Configure UART console.
 * BaudRate : 115200
 * 8 bits
 * 1 stop bit
 * sem paridade
 */
static void configure_console(void)
{
 
	const usart_serial_options_t uart_serial_options = {
		.baudrate   = CONF_UART_BAUDRATE,
		.charlength = CONF_UART_CHAR_LENGTH,
		.paritytype = CONF_UART_PARITY,
		.stopbits   = CONF_UART_STOP_BITS,
	};

	/* Configure console UART. */
	sysclk_enable_peripheral_clock(CONSOLE_UART_ID);
	stdio_serial_init(CONF_UART, &uart_serial_options);
}

static void configure_lcd(void){
	/* Initialize display parameter */
	g_ili9488_display_opt.ul_width = ILI9488_LCD_WIDTH;
	g_ili9488_display_opt.ul_height = ILI9488_LCD_HEIGHT;
	g_ili9488_display_opt.foreground_color = COLOR_CONVERT(COLOR_WHITE);
	g_ili9488_display_opt.background_color = COLOR_CONVERT(COLOR_WHITE);

	/* Initialize LCD */
	ili9488_init(&g_ili9488_display_opt);
	ili9488_draw_filled_rectangle(0, 0, ILI9488_LCD_WIDTH-1, ILI9488_LCD_HEIGHT-1);
	ili9488_set_foreground_color(COLOR_CONVERT(COLOR_TOMATO));
	ili9488_draw_filled_rectangle(0, 0, ILI9488_LCD_WIDTH-1, 120-1);
	ili9488_draw_filled_rectangle(0, 360, ILI9488_LCD_WIDTH-1, 480-1);
	ili9488_draw_pixmap(0, 50, 319, 129, logoImage);
}

/** 
 * converte valor lido do ADC para temperatura em graus celsius
 * input : ADC reg value
 * output: Temperature in celsius
 */
static int32_t convert_adc_to_temp(int32_t ADC_value){
  
  int32_t ul_vol;
  int32_t ul_temp;
  
	ul_vol = ADC_value * VOLT_REF / MAX_DIGITAL;

  /*
   * According to datasheet, The output voltage VT = 0.72V at 27C
   * and the temperature slope dVT/dT = 2.33 mV/C
   */
  ul_temp = (ul_vol - 720)  * 100 / 233 + 27;
  return(ul_temp);
}

static void config_ADC_TEMP(void){
/************************************* 
   * Ativa e configura AFEC
   *************************************/  
  /* Ativa AFEC - 0 */
	afec_enable(AFEC0);

	/* struct de configuracao do AFEC */
	struct afec_config afec_cfg;

	/* Carrega parametros padrao */
	afec_get_config_defaults(&afec_cfg);

	/* Configura AFEC */
	afec_init(AFEC0, &afec_cfg);
  
	/* Configura trigger por software */
	afec_set_trigger(AFEC0, AFEC_TRIG_SW);
  
	/* configura call back */
	afec_set_callback(AFEC0, AFEC_INTERRUPT_EOC_11,	AFEC_Temp_callback, 1); 
   
	/*** Configuracao específica do canal AFEC ***/
	struct afec_ch_config afec_ch_cfg;
	afec_ch_get_config_defaults(&afec_ch_cfg);
	afec_ch_cfg.gain = AFEC_GAINVALUE_0;
	afec_ch_set_config(AFEC0, AFEC_CHANNEL_TEMP_SENSOR, &afec_ch_cfg);
  
	/*
	* Calibracao:
	* Because the internal ADC offset is 0x200, it should cancel it and shift
	 down to 0.
	 */
	afec_channel_set_analog_offset(AFEC0, AFEC_CHANNEL_TEMP_SENSOR, 0x200);

	/***  Configura sensor de temperatura ***/
	struct afec_temp_sensor_config afec_temp_sensor_cfg;

	afec_temp_sensor_get_config_defaults(&afec_temp_sensor_cfg);
	afec_temp_sensor_set_config(AFEC0, &afec_temp_sensor_cfg);

	/* Selecina canal e inicializa conversão */  
	afec_channel_enable(AFEC0, AFEC_CHANNEL_TEMP_SENSOR);
}

void print(int T){
	
	uint8_t stingLCD[256];
	

	ili9488_set_foreground_color(COLOR_CONVERT(COLOR_WHITE));
	
	ili9488_draw_filled_rectangle(0, 300, ILI9488_LCD_WIDTH-1, 315);
	
	ili9488_set_foreground_color(COLOR_CONVERT(COLOR_BLACK));
	
	ili9488_set_foreground_color(COLOR_CONVERT(COLOR_WHITE));
	
	ili9488_draw_filled_rectangle(0, 280, ILI9488_LCD_WIDTH-1, 315);
	
	ili9488_set_foreground_color(COLOR_CONVERT(COLOR_BLACK));
	
	
	sprintf(stingLCD, "¨Temp: %d Celsius", T);
	ili9488_draw_string(10, 300, stingLCD);
	
}


void TC1_Handler(void){
	volatile uint32_t ul_dummy;

	/****************************************************************
	* Devemos indicar ao TC que a interrup??o foi satisfeita.
	******************************************************************/
	ul_dummy = tc_get_status(TC0, 1);

	/* Avoid compiler warning */
	UNUSED(ul_dummy);
	afec_start_software_conversion(AFEC0);
	flag_print = 1;

}

void TC2_Handler(void){
	volatile uint32_t ul_dummy;

	/****************************************************************
	* Devemos indicar ao TC que a interrup??o foi satisfeita.
	******************************************************************/
	ul_dummy = tc_get_status(TC0, 2);

	/* Avoid compiler warning */
	UNUSED(ul_dummy);

	if(is_conversion_done == true) {
		is_conversion_done = false;
		
		if(flag_print){
			print(convert_adc_to_temp(g_ul_value));
			flag_print = 0;
		}
	}

}


void TC_init(Tc * TC, int ID_TC, int TC_CHANNEL, int freq){
	uint32_t ul_div;
	uint32_t ul_tcclks;
	uint32_t ul_sysclk = sysclk_get_cpu_hz();

	uint32_t channel = 1;
	
	pmc_enable_periph_clk(ID_TC);

	/** Configura o TC para operar em  4Mhz e interrup?c?o no RC compare */
	tc_find_mck_divisor(freq, ul_sysclk, &ul_div, &ul_tcclks, ul_sysclk);
	tc_init(TC, TC_CHANNEL, ul_tcclks | TC_CMR_CPCTRG);
	tc_write_rc(TC, TC_CHANNEL, (ul_sysclk / ul_div) / freq);

	/* Configura e ativa interrup?c?o no TC canal 0 */
	/* Interrup??o no C */
	NVIC_EnableIRQ((IRQn_Type) ID_TC);
	tc_enable_interrupt(TC, TC_CHANNEL, TC_IER_CPCS);

	/* Inicializa o canal 0 do TC */
	tc_start(TC, TC_CHANNEL);
}


/**
 * \brief Called if stack overflow during execution
 */
extern void vApplicationStackOverflowHook(xTaskHandle *pxTask,
		signed char *pcTaskName)
{
	printf("stack overflow %x %s\r\n", pxTask, (portCHAR *)pcTaskName);
	/* If the parameters have been corrupted then inspect pxCurrentTCB to
	 * identify which task has overflowed its stack.
	 */
	for (;;) {
	}
}


/**
 * \brief This function is called by FreeRTOS idle task
 */
extern void vApplicationIdleHook(void)
{
	pmc_sleep(SAM_PM_SMODE_SLEEP_WFI);
}

/************************************************************************/
/* Main                                                                 */
/************************************************************************/
/**
 * \brief Application entry point.
 *
 * \return Unused (ANSI-C compatibility).
 */
int main(void)
{

	/* Initialize the SAM system. */
	sysclk_init();
	ioport_init();
	board_init();
  
  	/** Configura timer TC0, canal 1 */
  	TC_init(TC0, ID_TC1, 1, 2);
	TC_init(TC0, ID_TC2, 2, 1);
  
	/* inicializa delay */
	delay_init(sysclk_get_cpu_hz());

	/* inicializa console (printf) */
	configure_console();
	printf(STRING_HEADER);

    /* Inicializa e configura o LCD */
	configure_lcd();

    /* Escreve na tela Computacao Embarcada 2018 */
	ili9488_set_foreground_color(COLOR_CONVERT(COLOR_WHITE));
	ili9488_draw_filled_rectangle(0, 300, ILI9488_LCD_WIDTH-1, 315);
	ili9488_set_foreground_color(COLOR_CONVERT(COLOR_BLACK));
	
	/* inicializa e configura adc */
	config_ADC_TEMP();
  
	/* Output example information. */
	puts(STRING_HEADER);
	
	
	/* Start the scheduler. */
	vTaskStartScheduler();
	
	
	/* incializa conversão ADC */
	afec_start_software_conversion(AFEC0);
	while (1) {	
	}
	return 0;
}