-- Merging decision tree log ---
manifest
ADDED from C:\Users\sabri\Documents\GitHub\Computacao-Embarcada\Projetos\Conectividade\ExemploBluetooth\Application\src\main\AndroidManifest.xml:20:1-50:12
INJECTED from C:\Users\sabri\Documents\GitHub\Computacao-Embarcada\Projetos\Conectividade\ExemploBluetooth\Application\src\main\AndroidManifest.xml:20:1-50:12
INJECTED from C:\Users\sabri\Documents\GitHub\Computacao-Embarcada\Projetos\Conectividade\ExemploBluetooth\Application\src\main\AndroidManifest.xml:20:1-50:12
MERGED from [com.android.support:support-v13:27.0.2] C:\Users\sabri\.gradle\caches\transforms-1\files-1.1\support-v13-27.0.2.aar\2d6e923ef8a6db51bb4231422e6ef89f\AndroidManifest.xml:17:1-22:12
MERGED from [com.android.support:support-v4:27.0.2] C:\Users\sabri\.gradle\caches\transforms-1\files-1.1\support-v4-27.0.2.aar\76d8e84639e9adbfc9ffb4602a7e38b9\AndroidManifest.xml:17:1-22:12
MERGED from [com.android.support:cardview-v7:27.0.2] C:\Users\sabri\.gradle\caches\transforms-1\files-1.1\cardview-v7-27.0.2.aar\ba395f45276cce9c63477995521d13e1\AndroidManifest.xml:17:1-22:12
MERGED from [com.android.support:appcompat-v7:27.0.2] C:\Users\sabri\.gradle\caches\transforms-1\files-1.1\appcompat-v7-27.0.2.aar\d4f0154e209b0472049bc3961af3d897\AndroidManifest.xml:17:1-22:12
MERGED from [com.android.support:support-media-compat:27.0.2] C:\Users\sabri\.gradle\caches\transforms-1\files-1.1\support-media-compat-27.0.2.aar\534bb254e0ecf2b859598c1fd41e7d0c\AndroidManifest.xml:17:1-22:12
MERGED from [com.android.support:support-fragment:27.0.2] C:\Users\sabri\.gradle\caches\transforms-1\files-1.1\support-fragment-27.0.2.aar\ad4d62aeb67905559b272d1ecddd06ab\AndroidManifest.xml:17:1-22:12
MERGED from [com.android.support:support-core-utils:27.0.2] C:\Users\sabri\.gradle\caches\transforms-1\files-1.1\support-core-utils-27.0.2.aar\a1ce83602a304b6e1ead2e73eaa3b31f\AndroidManifest.xml:17:1-22:12
MERGED from [com.android.support:animated-vector-drawable:27.0.2] C:\Users\sabri\.gradle\caches\transforms-1\files-1.1\animated-vector-drawable-27.0.2.aar\7ed3728cb3a53be6398a1b148dde0817\AndroidManifest.xml:17:1-22:12
MERGED from [com.android.support:support-core-ui:27.0.2] C:\Users\sabri\.gradle\caches\transforms-1\files-1.1\support-core-ui-27.0.2.aar\fc7c56c7ad3714c1da70b6de4ec9aea0\AndroidManifest.xml:17:1-22:12
MERGED from [com.android.support:support-vector-drawable:27.0.2] C:\Users\sabri\.gradle\caches\transforms-1\files-1.1\support-vector-drawable-27.0.2.aar\c0eace391a0354b62c8229eb6c0ac295\AndroidManifest.xml:17:1-22:12
MERGED from [com.android.support:support-compat:27.0.2] C:\Users\sabri\.gradle\caches\transforms-1\files-1.1\support-compat-27.0.2.aar\f1075f0fc5f7205b5379172f83561d09\AndroidManifest.xml:17:1-22:12
MERGED from [android.arch.lifecycle:runtime:1.0.3] C:\Users\sabri\.gradle\caches\transforms-1\files-1.1\runtime-1.0.3.aar\30984d0183a759e2750a3aeeedbdf8bd\AndroidManifest.xml:17:1-24:12
INJECTED from C:\Users\sabri\Documents\GitHub\Computacao-Embarcada\Projetos\Conectividade\ExemploBluetooth\Application\src\main\AndroidManifest.xml:20:1-50:12
INJECTED from C:\Users\sabri\Documents\GitHub\Computacao-Embarcada\Projetos\Conectividade\ExemploBluetooth\Application\src\main\AndroidManifest.xml:20:1-50:12
	package
		ADDED from C:\Users\sabri\Documents\GitHub\Computacao-Embarcada\Projetos\Conectividade\ExemploBluetooth\Application\src\main\AndroidManifest.xml:21:5-50
	android:versionName
		ADDED from C:\Users\sabri\Documents\GitHub\Computacao-Embarcada\Projetos\Conectividade\ExemploBluetooth\Application\src\main\AndroidManifest.xml:23:5-30
		INJECTED from C:\Users\sabri\Documents\GitHub\Computacao-Embarcada\Projetos\Conectividade\ExemploBluetooth\Application\src\main\AndroidManifest.xml
		INJECTED from C:\Users\sabri\Documents\GitHub\Computacao-Embarcada\Projetos\Conectividade\ExemploBluetooth\Application\src\main\AndroidManifest.xml
	xmlns:android
		ADDED from C:\Users\sabri\Documents\GitHub\Computacao-Embarcada\Projetos\Conectividade\ExemploBluetooth\Application\src\main\AndroidManifest.xml:20:11-69
	android:versionCode
		ADDED from C:\Users\sabri\Documents\GitHub\Computacao-Embarcada\Projetos\Conectividade\ExemploBluetooth\Application\src\main\AndroidManifest.xml:22:5-28
		INJECTED from C:\Users\sabri\Documents\GitHub\Computacao-Embarcada\Projetos\Conectividade\ExemploBluetooth\Application\src\main\AndroidManifest.xml
		INJECTED from C:\Users\sabri\Documents\GitHub\Computacao-Embarcada\Projetos\Conectividade\ExemploBluetooth\Application\src\main\AndroidManifest.xml
uses-feature#android.hardware.bluetooth_le
ADDED from C:\Users\sabri\Documents\GitHub\Computacao-Embarcada\Projetos\Conectividade\ExemploBluetooth\Application\src\main\AndroidManifest.xml:31:5-89
	android:required
		ADDED from C:\Users\sabri\Documents\GitHub\Computacao-Embarcada\Projetos\Conectividade\ExemploBluetooth\Application\src\main\AndroidManifest.xml:31:64-87
	android:name
		ADDED from C:\Users\sabri\Documents\GitHub\Computacao-Embarcada\Projetos\Conectividade\ExemploBluetooth\Application\src\main\AndroidManifest.xml:31:19-63
uses-permission#android.permission.BLUETOOTH
ADDED from C:\Users\sabri\Documents\GitHub\Computacao-Embarcada\Projetos\Conectividade\ExemploBluetooth\Application\src\main\AndroidManifest.xml:33:5-67
	android:name
		ADDED from C:\Users\sabri\Documents\GitHub\Computacao-Embarcada\Projetos\Conectividade\ExemploBluetooth\Application\src\main\AndroidManifest.xml:33:22-65
uses-permission#android.permission.BLUETOOTH_ADMIN
ADDED from C:\Users\sabri\Documents\GitHub\Computacao-Embarcada\Projetos\Conectividade\ExemploBluetooth\Application\src\main\AndroidManifest.xml:34:5-73
	android:name
		ADDED from C:\Users\sabri\Documents\GitHub\Computacao-Embarcada\Projetos\Conectividade\ExemploBluetooth\Application\src\main\AndroidManifest.xml:34:22-71
application
ADDED from C:\Users\sabri\Documents\GitHub\Computacao-Embarcada\Projetos\Conectividade\ExemploBluetooth\Application\src\main\AndroidManifest.xml:36:5-48:19
	android:label
		ADDED from C:\Users\sabri\Documents\GitHub\Computacao-Embarcada\Projetos\Conectividade\ExemploBluetooth\Application\src\main\AndroidManifest.xml:36:18-50
	android:icon
		ADDED from C:\Users\sabri\Documents\GitHub\Computacao-Embarcada\Projetos\Conectividade\ExemploBluetooth\Application\src\main\AndroidManifest.xml:37:9-45
	android:theme
		ADDED from C:\Users\sabri\Documents\GitHub\Computacao-Embarcada\Projetos\Conectividade\ExemploBluetooth\Application\src\main\AndroidManifest.xml:38:9-56
activity#com.example.android.bluetoothlegatt.DeviceScanActivity
ADDED from C:\Users\sabri\Documents\GitHub\Computacao-Embarcada\Projetos\Conectividade\ExemploBluetooth\Application\src\main\AndroidManifest.xml:39:9-45:20
	android:label
		ADDED from C:\Users\sabri\Documents\GitHub\Computacao-Embarcada\Projetos\Conectividade\ExemploBluetooth\Application\src\main\AndroidManifest.xml:40:13-45
	android:name
		ADDED from C:\Users\sabri\Documents\GitHub\Computacao-Embarcada\Projetos\Conectividade\ExemploBluetooth\Application\src\main\AndroidManifest.xml:39:19-53
intent-filter#android.intent.action.MAIN+android.intent.category.LAUNCHER
ADDED from C:\Users\sabri\Documents\GitHub\Computacao-Embarcada\Projetos\Conectividade\ExemploBluetooth\Application\src\main\AndroidManifest.xml:41:13-44:29
action#android.intent.action.MAIN
ADDED from C:\Users\sabri\Documents\GitHub\Computacao-Embarcada\Projetos\Conectividade\ExemploBluetooth\Application\src\main\AndroidManifest.xml:42:17-68
	android:name
		ADDED from C:\Users\sabri\Documents\GitHub\Computacao-Embarcada\Projetos\Conectividade\ExemploBluetooth\Application\src\main\AndroidManifest.xml:42:25-66
category#android.intent.category.LAUNCHER
ADDED from C:\Users\sabri\Documents\GitHub\Computacao-Embarcada\Projetos\Conectividade\ExemploBluetooth\Application\src\main\AndroidManifest.xml:43:17-76
	android:name
		ADDED from C:\Users\sabri\Documents\GitHub\Computacao-Embarcada\Projetos\Conectividade\ExemploBluetooth\Application\src\main\AndroidManifest.xml:43:27-74
activity#com.example.android.bluetoothlegatt.DeviceControlActivity
ADDED from C:\Users\sabri\Documents\GitHub\Computacao-Embarcada\Projetos\Conectividade\ExemploBluetooth\Application\src\main\AndroidManifest.xml:46:9-58
	android:name
		ADDED from C:\Users\sabri\Documents\GitHub\Computacao-Embarcada\Projetos\Conectividade\ExemploBluetooth\Application\src\main\AndroidManifest.xml:46:19-56
service#com.example.android.bluetoothlegatt.BluetoothLeService
ADDED from C:\Users\sabri\Documents\GitHub\Computacao-Embarcada\Projetos\Conectividade\ExemploBluetooth\Application\src\main\AndroidManifest.xml:47:9-77
	android:enabled
		ADDED from C:\Users\sabri\Documents\GitHub\Computacao-Embarcada\Projetos\Conectividade\ExemploBluetooth\Application\src\main\AndroidManifest.xml:47:53-75
	android:name
		ADDED from C:\Users\sabri\Documents\GitHub\Computacao-Embarcada\Projetos\Conectividade\ExemploBluetooth\Application\src\main\AndroidManifest.xml:47:18-52
uses-sdk
INJECTED from C:\Users\sabri\Documents\GitHub\Computacao-Embarcada\Projetos\Conectividade\ExemploBluetooth\Application\src\main\AndroidManifest.xml reason: use-sdk injection requested
INJECTED from C:\Users\sabri\Documents\GitHub\Computacao-Embarcada\Projetos\Conectividade\ExemploBluetooth\Application\src\main\AndroidManifest.xml
INJECTED from C:\Users\sabri\Documents\GitHub\Computacao-Embarcada\Projetos\Conectividade\ExemploBluetooth\Application\src\main\AndroidManifest.xml
MERGED from [com.android.support:support-v13:27.0.2] C:\Users\sabri\.gradle\caches\transforms-1\files-1.1\support-v13-27.0.2.aar\2d6e923ef8a6db51bb4231422e6ef89f\AndroidManifest.xml:20:5-44
MERGED from [com.android.support:support-v13:27.0.2] C:\Users\sabri\.gradle\caches\transforms-1\files-1.1\support-v13-27.0.2.aar\2d6e923ef8a6db51bb4231422e6ef89f\AndroidManifest.xml:20:5-44
MERGED from [com.android.support:support-v4:27.0.2] C:\Users\sabri\.gradle\caches\transforms-1\files-1.1\support-v4-27.0.2.aar\76d8e84639e9adbfc9ffb4602a7e38b9\AndroidManifest.xml:20:5-44
MERGED from [com.android.support:support-v4:27.0.2] C:\Users\sabri\.gradle\caches\transforms-1\files-1.1\support-v4-27.0.2.aar\76d8e84639e9adbfc9ffb4602a7e38b9\AndroidManifest.xml:20:5-44
MERGED from [com.android.support:cardview-v7:27.0.2] C:\Users\sabri\.gradle\caches\transforms-1\files-1.1\cardview-v7-27.0.2.aar\ba395f45276cce9c63477995521d13e1\AndroidManifest.xml:20:5-44
MERGED from [com.android.support:cardview-v7:27.0.2] C:\Users\sabri\.gradle\caches\transforms-1\files-1.1\cardview-v7-27.0.2.aar\ba395f45276cce9c63477995521d13e1\AndroidManifest.xml:20:5-44
MERGED from [com.android.support:appcompat-v7:27.0.2] C:\Users\sabri\.gradle\caches\transforms-1\files-1.1\appcompat-v7-27.0.2.aar\d4f0154e209b0472049bc3961af3d897\AndroidManifest.xml:20:5-44
MERGED from [com.android.support:appcompat-v7:27.0.2] C:\Users\sabri\.gradle\caches\transforms-1\files-1.1\appcompat-v7-27.0.2.aar\d4f0154e209b0472049bc3961af3d897\AndroidManifest.xml:20:5-44
MERGED from [com.android.support:support-media-compat:27.0.2] C:\Users\sabri\.gradle\caches\transforms-1\files-1.1\support-media-compat-27.0.2.aar\534bb254e0ecf2b859598c1fd41e7d0c\AndroidManifest.xml:20:5-44
MERGED from [com.android.support:support-media-compat:27.0.2] C:\Users\sabri\.gradle\caches\transforms-1\files-1.1\support-media-compat-27.0.2.aar\534bb254e0ecf2b859598c1fd41e7d0c\AndroidManifest.xml:20:5-44
MERGED from [com.android.support:support-fragment:27.0.2] C:\Users\sabri\.gradle\caches\transforms-1\files-1.1\support-fragment-27.0.2.aar\ad4d62aeb67905559b272d1ecddd06ab\AndroidManifest.xml:20:5-44
MERGED from [com.android.support:support-fragment:27.0.2] C:\Users\sabri\.gradle\caches\transforms-1\files-1.1\support-fragment-27.0.2.aar\ad4d62aeb67905559b272d1ecddd06ab\AndroidManifest.xml:20:5-44
MERGED from [com.android.support:support-core-utils:27.0.2] C:\Users\sabri\.gradle\caches\transforms-1\files-1.1\support-core-utils-27.0.2.aar\a1ce83602a304b6e1ead2e73eaa3b31f\AndroidManifest.xml:20:5-44
MERGED from [com.android.support:support-core-utils:27.0.2] C:\Users\sabri\.gradle\caches\transforms-1\files-1.1\support-core-utils-27.0.2.aar\a1ce83602a304b6e1ead2e73eaa3b31f\AndroidManifest.xml:20:5-44
MERGED from [com.android.support:animated-vector-drawable:27.0.2] C:\Users\sabri\.gradle\caches\transforms-1\files-1.1\animated-vector-drawable-27.0.2.aar\7ed3728cb3a53be6398a1b148dde0817\AndroidManifest.xml:20:5-44
MERGED from [com.android.support:animated-vector-drawable:27.0.2] C:\Users\sabri\.gradle\caches\transforms-1\files-1.1\animated-vector-drawable-27.0.2.aar\7ed3728cb3a53be6398a1b148dde0817\AndroidManifest.xml:20:5-44
MERGED from [com.android.support:support-core-ui:27.0.2] C:\Users\sabri\.gradle\caches\transforms-1\files-1.1\support-core-ui-27.0.2.aar\fc7c56c7ad3714c1da70b6de4ec9aea0\AndroidManifest.xml:20:5-44
MERGED from [com.android.support:support-core-ui:27.0.2] C:\Users\sabri\.gradle\caches\transforms-1\files-1.1\support-core-ui-27.0.2.aar\fc7c56c7ad3714c1da70b6de4ec9aea0\AndroidManifest.xml:20:5-44
MERGED from [com.android.support:support-vector-drawable:27.0.2] C:\Users\sabri\.gradle\caches\transforms-1\files-1.1\support-vector-drawable-27.0.2.aar\c0eace391a0354b62c8229eb6c0ac295\AndroidManifest.xml:20:5-44
MERGED from [com.android.support:support-vector-drawable:27.0.2] C:\Users\sabri\.gradle\caches\transforms-1\files-1.1\support-vector-drawable-27.0.2.aar\c0eace391a0354b62c8229eb6c0ac295\AndroidManifest.xml:20:5-44
MERGED from [com.android.support:support-compat:27.0.2] C:\Users\sabri\.gradle\caches\transforms-1\files-1.1\support-compat-27.0.2.aar\f1075f0fc5f7205b5379172f83561d09\AndroidManifest.xml:20:5-44
MERGED from [com.android.support:support-compat:27.0.2] C:\Users\sabri\.gradle\caches\transforms-1\files-1.1\support-compat-27.0.2.aar\f1075f0fc5f7205b5379172f83561d09\AndroidManifest.xml:20:5-44
MERGED from [android.arch.lifecycle:runtime:1.0.3] C:\Users\sabri\.gradle\caches\transforms-1\files-1.1\runtime-1.0.3.aar\30984d0183a759e2750a3aeeedbdf8bd\AndroidManifest.xml:20:5-22:41
MERGED from [android.arch.lifecycle:runtime:1.0.3] C:\Users\sabri\.gradle\caches\transforms-1\files-1.1\runtime-1.0.3.aar\30984d0183a759e2750a3aeeedbdf8bd\AndroidManifest.xml:20:5-22:41
INJECTED from C:\Users\sabri\Documents\GitHub\Computacao-Embarcada\Projetos\Conectividade\ExemploBluetooth\Application\src\main\AndroidManifest.xml
INJECTED from C:\Users\sabri\Documents\GitHub\Computacao-Embarcada\Projetos\Conectividade\ExemploBluetooth\Application\src\main\AndroidManifest.xml
	android:targetSdkVersion
		INJECTED from C:\Users\sabri\Documents\GitHub\Computacao-Embarcada\Projetos\Conectividade\ExemploBluetooth\Application\src\main\AndroidManifest.xml
		ADDED from C:\Users\sabri\Documents\GitHub\Computacao-Embarcada\Projetos\Conectividade\ExemploBluetooth\Application\src\main\AndroidManifest.xml
		INJECTED from C:\Users\sabri\Documents\GitHub\Computacao-Embarcada\Projetos\Conectividade\ExemploBluetooth\Application\src\main\AndroidManifest.xml
	android:minSdkVersion
		INJECTED from C:\Users\sabri\Documents\GitHub\Computacao-Embarcada\Projetos\Conectividade\ExemploBluetooth\Application\src\main\AndroidManifest.xml
		ADDED from C:\Users\sabri\Documents\GitHub\Computacao-Embarcada\Projetos\Conectividade\ExemploBluetooth\Application\src\main\AndroidManifest.xml
		INJECTED from C:\Users\sabri\Documents\GitHub\Computacao-Embarcada\Projetos\Conectividade\ExemploBluetooth\Application\src\main\AndroidManifest.xml
